{
  "project_info": {
    "project_number": "577028398072",
    "project_id": "fir-module-66072",
    "storage_bucket": "fir-module-66072.appspot.com"
  },
  "client": [
    {
      "client_info": {
        "mobilesdk_app_id": "1:577028398072:android:5c3fc43581ac5c8578940d",
        "android_client_info": {
          "package_name": "com.example.firebasemodule"
        }
      },
      "oauth_client": [
        {
          "client_id": "577028398072-ai0u08eandepi7u4e6oaq4ivnb0ajn30.apps.googleusercontent.com",
          "client_type": 3
        }
      ],
      "api_key": [
        {
          "current_key": "AIzaSyArgeTagFO7MEKz7WMY23FtG-iFQWazLP0"
        }
      ],
      "services": {
        "appinvite_service": {
          "other_platform_oauth_client": [
            {
              "client_id": "577028398072-ai0u08eandepi7u4e6oaq4ivnb0ajn30.apps.googleusercontent.com",
              "client_type": 3
            }
          ]
        }
      }
    }
  ],
  "configuration_version": "1"
}